Verilog/Multiplier/melendez_multtest.out
VCD info: dumpfile multiplier.vcd opened for output.
multiplier = 3, multiplicand = 5, product = x.
multiplier = 3, multiplicand = 5, product = 0.
multiplier = 3, multiplicand = 5, product = 5.
multiplier = 3, multiplicand = 5, product = 15.
multiplier = 100, multiplicand = 100, product = 15.
multiplier = 100, multiplicand = 100, product = 0.
multiplier = 100, multiplicand = 100, product = 400.
multiplier = 100, multiplicand = 100, product = 3600.
multiplier = 100, multiplicand = 100, product = 10000.
multiplier = 41, multiplicand = 1, product = 10000.
multiplier = 41, multiplicand = 1, product = 0.
multiplier = 1000000000, multiplicand = 250, product = 0.
multiplier = 1000000000, multiplicand = 250, product = 1.
multiplier = 1000000000, multiplicand = 250, product = 9.
multiplier = 1000000000, multiplicand = 250, product = 41.
multiplier = 4294967295, multiplicand = 4294967295, product = 41.
multiplier = 4294967295, multiplicand = 4294967295, product = 0.
multiplier = 4294967295, multiplicand = 4294967295, product = 4294967295.
multiplier = 4294967295, multiplicand = 4294967295, product = 12884901885.
multiplier = 4294967295, multiplicand = 4294967295, product = 30064771065.
multiplier = 4294967295, multiplicand = 4294967295, product = 64424509425.
multiplier = 4294967295, multiplicand = 4294967295, product = 133143986145.
multiplier = 4294967295, multiplicand = 4294967295, product = 270582939585.
multiplier = 4294967295, multiplicand = 4294967295, product = 545460846465.
multiplier = 4294967295, multiplicand = 4294967295, product = 1095216660225.
multiplier = 4294967295, multiplicand = 4294967295, product = 2194728287745.
multiplier = 4294967295, multiplicand = 4294967295, product = 4393751542785.
multiplier = 4294967295, multiplicand = 4294967295, product = 8791798052865.
multiplier = 4294967295, multiplicand = 4294967295, product = 17587891073025.
multiplier = 4294967295, multiplicand = 4294967295, product = 35180077113345.
multiplier = 4294967295, multiplicand = 4294967295, product = 70364449193985.
multiplier = 4294967295, multiplicand = 4294967295, product = 140733193355265.
multiplier = 4294967295, multiplicand = 4294967295, product = 281470681677825.
multiplier = 4294967295, multiplicand = 4294967295, product = 562945658322945.
multiplier = 4294967295, multiplicand = 4294967295, product = 1125895611613185.
multiplier = 4294967295, multiplicand = 4294967295, product = 2251795518193665.
multiplier = 4294967295, multiplicand = 4294967295, product = 4503595331354625.
multiplier = 4294967295, multiplicand = 4294967295, product = 9007194957676545.
multiplier = 4294967295, multiplicand = 4294967295, product = 18014394210320385.
multiplier = 4294967295, multiplicand = 4294967295, product = 36028792715608065.
multiplier = 4294967295, multiplicand = 4294967295, product = 72057589726183425.
multiplier = 4294967295, multiplicand = 4294967295, product = 144115183747334145.
multiplier = 4294967295, multiplicand = 4294967295, product = 288230371789635585.
multiplier = 4294967295, multiplicand = 4294967295, product = 576460747874238465.
multiplier = 4294967295, multiplicand = 4294967295, product = 1152921500043444225.
multiplier = 4294967295, multiplicand = 4294967295, product = 2305843004381855745.
multiplier = 4294967295, multiplicand = 4294967295, product = 4611686013058678785.
multiplier = 4294967295, multiplicand = 4294967295, product = 9223372030412324865.
multiplier = 4294967295, multiplicand = 4294967295, product = 18446744065119617025.
Finding VCD file...
./multiplier.vcd